
        ==========     _____ _    _ ____  _____  ______          _____  
        =====         / ____| |  | |  _ \|  __ \|  ____|   /\   |  __ \ 
          =====      | (___ | |  | | |_) | |__) | |__     /  \  | |  | |
            ====      \___ \| |  | |  _ <|  _  /|  __|   / /\ \ | |  | |
              ====    ____) | |__| | |_) | | \ \| |____ / ____ \| |__| |
        ==========   |_____/ \____/|____/|_|  \_\______/_/    \_\_____/
	  v1.4.5

//========================== featureCounts setting ===========================\\
||                                                                            ||
||             Input files : 18 BAM files                                     ||
||                           S SRR2984580.bam                                 ||
||                           S SRR2984582.bam                                 ||
||                           S SRR2984583.bam                                 ||
||                           S SRR2984584.bam                                 ||
||                           S SRR2984585.bam                                 ||
||                           S SRR2984586.bam                                 ||
||                           S SRR2984587.bam                                 ||
||                           S SRR2984588.bam                                 ||
||                           S SRR2984589.bam                                 ||
||                           S SRR2984590.bam                                 ||
||                           S SRR2984591.bam                                 ||
||                           S SRR2984592.bam                                 ||
||                           S SRR2984594.bam                                 ||
||                           S SRR2984595.bam                                 ||
||                           S SRR2984596.bam                                 ||
||                           S SRR2984598.bam                                 ||
||                           S SRR2984599.bam                                 ||
||                           S SRR2984601.bam                                 ||
||                                                                            ||
||             Output file : counts_pm.txt                                    ||
||             Annotations : /home/aloraine/src/banana/GeneRegions/result ... ||
||                                                                            ||
||                 Threads : 1                                                ||
||                   Level : meta-feature level                               ||
||              Paired-end : no                                               ||
||         Strand specific : no                                               ||
||      Multimapping reads : primary only                                     ||
|| Multi-overlapping reads : counted                                          ||
||                                                                            ||
\\===================== http://subread.sourceforge.net/ ======================//

//================================= Running ==================================\\
||                                                                            ||
|| Load annotation file /home/aloraine/src/banana/GeneRegions/results/SAF ... ||
||    Features : 35276                                                        ||
||    Meta-features : 35276                                                   ||
||    Chromosomes : 24                                                        ||
||                                                                            ||
|| Process BAM file SRR2984580.bam...                                         ||
||    Single-end reads are included.                                          ||
||    Assign reads to features...                                             ||
||    Total reads : 36392428                                                  ||
||    Successfully assigned reads : 32569429 (89.5%)                          ||
||    Running time : 1.24 minutes                                             ||
||                                                                            ||
|| Process BAM file SRR2984582.bam...                                         ||
||    Single-end reads are included.                                          ||
||    Assign reads to features...                                             ||
||    Total reads : 25778211                                                  ||
||    Successfully assigned reads : 23295335 (90.4%)                          ||
||    Running time : 0.88 minutes                                             ||
||                                                                            ||
|| Process BAM file SRR2984583.bam...                                         ||
||    Single-end reads are included.                                          ||
||    Assign reads to features...                                             ||
||    Total reads : 29130491                                                  ||
||    Successfully assigned reads : 26469809 (90.9%)                          ||
||    Running time : 1.00 minutes                                             ||
||                                                                            ||
|| Process BAM file SRR2984584.bam...                                         ||
||    Single-end reads are included.                                          ||
||    Assign reads to features...                                             ||
||    Total reads : 28368833                                                  ||
||    Successfully assigned reads : 24690930 (87.0%)                          ||
||    Running time : 0.97 minutes                                             ||
||                                                                            ||
|| Process BAM file SRR2984585.bam...                                         ||
||    Single-end reads are included.                                          ||
||    Assign reads to features...                                             ||
||    Total reads : 24333075                                                  ||
||    Successfully assigned reads : 22152426 (91.0%)                          ||
||    Running time : 0.83 minutes                                             ||
||                                                                            ||
|| Process BAM file SRR2984586.bam...                                         ||
||    Single-end reads are included.                                          ||
||    Assign reads to features...                                             ||
||    Total reads : 20945510                                                  ||
||    Successfully assigned reads : 19199481 (91.7%)                          ||
||    Running time : 0.72 minutes                                             ||
||                                                                            ||
|| Process BAM file SRR2984587.bam...                                         ||
||    Single-end reads are included.                                          ||
||    Assign reads to features...                                             ||
||    Total reads : 25718942                                                  ||
||    Successfully assigned reads : 21592692 (84.0%)                          ||
||    Running time : 0.88 minutes                                             ||
||                                                                            ||
|| Process BAM file SRR2984588.bam...                                         ||
||    Single-end reads are included.                                          ||
||    Assign reads to features...                                             ||
||    Total reads : 16808448                                                  ||
||    Successfully assigned reads : 14768488 (87.9%)                          ||
||    Running time : 0.58 minutes                                             ||
||                                                                            ||
|| Process BAM file SRR2984589.bam...                                         ||
||    Single-end reads are included.                                          ||
||    Assign reads to features...                                             ||
||    Total reads : 24915479                                                  ||
||    Successfully assigned reads : 17972704 (72.1%)                          ||
||    Running time : 0.86 minutes                                             ||
||                                                                            ||
|| Process BAM file SRR2984590.bam...                                         ||
||    Single-end reads are included.                                          ||
||    Assign reads to features...                                             ||
||    Total reads : 19556484                                                  ||
||    Successfully assigned reads : 17556546 (89.8%)                          ||
||    Running time : 0.67 minutes                                             ||
||                                                                            ||
|| Process BAM file SRR2984591.bam...                                         ||
||    Single-end reads are included.                                          ||
||    Assign reads to features...                                             ||
||    Total reads : 30467770                                                  ||
||    Successfully assigned reads : 25736327 (84.5%)                          ||
||    Running time : 1.04 minutes                                             ||
||                                                                            ||
|| Process BAM file SRR2984592.bam...                                         ||
||    Single-end reads are included.                                          ||
||    Assign reads to features...                                             ||
||    Total reads : 30470803                                                  ||
||    Successfully assigned reads : 24985784 (82.0%)                          ||
||    Running time : 1.04 minutes                                             ||
||                                                                            ||
|| Process BAM file SRR2984594.bam...                                         ||
||    Single-end reads are included.                                          ||
||    Assign reads to features...                                             ||
||    Total reads : 23657595                                                  ||
||    Successfully assigned reads : 21558422 (91.1%)                          ||
||    Running time : 0.81 minutes                                             ||
||                                                                            ||
|| Process BAM file SRR2984595.bam...                                         ||
||    Single-end reads are included.                                          ||
||    Assign reads to features...                                             ||
||    Total reads : 34989044                                                  ||
||    Successfully assigned reads : 29721848 (84.9%)                          ||
||    Running time : 1.19 minutes                                             ||
||                                                                            ||
|| Process BAM file SRR2984596.bam...                                         ||
||    Single-end reads are included.                                          ||
||    Assign reads to features...                                             ||
||    Total reads : 22547414                                                  ||
||    Successfully assigned reads : 20344189 (90.2%)                          ||
||    Running time : 0.77 minutes                                             ||
||                                                                            ||
|| Process BAM file SRR2984598.bam...                                         ||
||    Single-end reads are included.                                          ||
||    Assign reads to features...                                             ||
||    Total reads : 26531276                                                  ||
||    Successfully assigned reads : 23398381 (88.2%)                          ||
||    Running time : 0.91 minutes                                             ||
||                                                                            ||
|| Process BAM file SRR2984599.bam...                                         ||
||    Single-end reads are included.                                          ||
||    Assign reads to features...                                             ||
||    Total reads : 27557687                                                  ||
||    Successfully assigned reads : 25147238 (91.3%)                          ||
||    Running time : 0.94 minutes                                             ||
||                                                                            ||
|| Process BAM file SRR2984601.bam...                                         ||
||    Single-end reads are included.                                          ||
||    Assign reads to features...                                             ||
||    Total reads : 27459274                                                  ||
||    Successfully assigned reads : 25034036 (91.2%)                          ||
||    Running time : 0.94 minutes                                             ||
||                                                                            ||
||                         Read assignment finished.                          ||
||                                                                            ||
\\===================== http://subread.sourceforge.net/ ======================//

